%YAML 1.1
%TAG !u! tag:unity3d.com,2011:
--- !u!1045 &1
EditorBuildSettings:
  m_ObjectHideFlags: 0
  serializedVersion: 2
  m_Scenes:
  - enabled: 1
    path: Assets/Scenes/VirtualPet_MainScene.unity
    guid: d3266109a0696c34ba314bda27fea490
  m_configObjects:
    UnityEditor.XR.ARCore.ARCoreSettings: {fileID: 11400000, guid: 18dc6ba4e9fa1e54297b3a237574de08, type: 2}
    com.unity.xr.management.loader_settings: {fileID: 11400000, guid: 37f02faecd767574fadf6c6350fc9688, type: 2}
